ggEffects Package
…
broom::glance(lm.1)

# A tibble: 1 × 12
  r.squared adj.r.squared sigma statistic   p.value    df logLik   AIC   BIC
      <dbl>         <dbl> <dbl>     <dbl>     <dbl> <dbl>  <dbl> <dbl> <dbl>
1    0.0489        0.0464 0.860      19.4 0.0000135     1  -481.  968.  980.
# ℹ 3 more variables: deviance <dbl>, df.residual <int>, nobs <int>

broom::augment(lm.1)

# A tibble: 380 × 9
   .rownames   zsbp   wgt .fitted .resid    .hat .sigma   .cooksd .std.resid
   <chr>      <dbl> <dbl>   <dbl>  <dbl>   <dbl>  <dbl>     <dbl>      <dbl>
 1 1          1.46   58.9  0.253   1.21  0.00542  0.859 0.00541        1.41 
 2 2          0.214  53    0.113   0.101 0.00289  0.861 0.0000198      0.117
 3 3          0.317  53    0.113   0.204 0.00289  0.861 0.0000814      0.237
 4 4          0.222  50    0.0425  0.179 0.00264  0.861 0.0000576      0.209
 5 5         -0.377  36.7 -0.272  -0.105 0.00995  0.861 0.0000757     -0.123
 6 6          0.268  50    0.0425  0.226 0.00264  0.861 0.0000915      0.263
 7 7         -0.335  50    0.0425 -0.378 0.00264  0.861 0.000256      -0.440
 8 8          0.716  51.1  0.0685  0.648 0.00265  0.861 0.000755       0.754
 9 9         -0.363  49.1  0.0212 -0.384 0.00270  0.861 0.000271      -0.447
10 10         1.54   46.5 -0.0403  1.58  0.00323  0.858 0.00547        1.84 
# ℹ 370 more rows
…
broom::glance(lm.2)

# A tibble: 1 × 12
  r.squared adj.r.squared sigma statistic p.value    df logLik   AIC   BIC
      <dbl>         <dbl> <dbl>     <dbl>   <dbl> <dbl>  <dbl> <dbl> <dbl>
1   0.00581       0.00318 0.880      2.21   0.138     1  -489.  985.  997.
# ℹ 3 more variables: deviance <dbl>, df.residual <int>, nobs <int>

broom::augment(lm.2)

# A tibble: 380 × 9
   .rownames   zsbp sex    .fitted .resid    .hat .sigma  .cooksd .std.resid
   <chr>      <dbl> <fct>    <dbl>  <dbl>   <dbl>  <dbl>    <dbl>      <dbl>
 1 1          1.46  F     -0.00430  1.47  0.00452  0.878 0.00634       1.67 
 2 2          0.214 F     -0.00430  0.218 0.00452  0.881 0.000141      0.249
 3 3          0.317 F     -0.00430  0.321 0.00452  0.881 0.000305      0.366
 4 4          0.222 F     -0.00430  0.226 0.00452  0.881 0.000151      0.258
 5 5         -0.377 F     -0.00430 -0.373 0.00452  0.881 0.000410     -0.425
 6 6          0.268 F     -0.00430  0.273 0.00452  0.881 0.000219      0.311
 7 7         -0.335 F     -0.00430 -0.331 0.00452  0.881 0.000323     -0.377
 8 8          0.716 F     -0.00430  0.721 0.00452  0.880 0.00153       0.821
 9 9         -0.363 F     -0.00430 -0.359 0.00452  0.881 0.000380     -0.409
10 10         1.54  F     -0.00430  1.54  0.00452  0.877 0.00702       1.76 
# ℹ 370 more rows
…
broom::glance(lm.3)

# A tibble: 1 × 12
  r.squared adj.r.squared sigma statistic   p.value    df logLik   AIC   BIC
      <dbl>         <dbl> <dbl>     <dbl>     <dbl> <dbl>  <dbl> <dbl> <dbl>
1    0.0561        0.0486 0.859      7.46 0.0000733     3  -480.  969.  989.
# ℹ 3 more variables: deviance <dbl>, df.residual <int>, nobs <int>

broom::augment(lm.3)

# A tibble: 380 × 10
   .rownames   zsbp   wgt sex    .fitted   .resid    .hat .sigma     .cooksd
   <chr>      <dbl> <dbl> <fct>    <dbl>    <dbl>   <dbl>  <dbl>       <dbl>
 1 1          1.46   58.9 F      0.235    1.23    0.00904  0.858 0.00469    
 2 2          0.214  53   F      0.0739   0.140   0.00501  0.860 0.0000336  
 3 3          0.317  53   F      0.0739   0.243   0.00501  0.860 0.000101   
 4 4          0.222  50   F     -0.00813  0.230   0.00453  0.860 0.0000817  
 5 5         -0.377  36.7 F     -0.372   -0.00546 0.0151   0.860 0.000000158
 6 6          0.268  50   F     -0.00813  0.277   0.00453  0.860 0.000118   
 7 7         -0.335  50   F     -0.00813 -0.327   0.00453  0.860 0.000166   
 8 8          0.716  51.1 F      0.0219   0.694   0.00458  0.860 0.000754   
 9 9         -0.363  49.1 F     -0.0327  -0.330   0.00459  0.860 0.000171   
10 10         1.54   46.5 F     -0.104    1.64    0.00530  0.856 0.00489    
# ℹ 370 more rows
# ℹ 1 more variable: .std.resid <dbl>
…
broom::glance(lm.4)

# A tibble: 1 × 12
  r.squared adj.r.squared sigma statistic   p.value    df logLik   AIC   BIC
      <dbl>         <dbl> <dbl>     <dbl>     <dbl> <dbl>  <dbl> <dbl> <dbl>
1    0.0561        0.0486 0.859      7.46 0.0000733     3  -480.  969.  989.
# ℹ 3 more variables: deviance <dbl>, df.residual <int>, nobs <int>

broom::augment(lm.4)

# A tibble: 380 × 10
   .rownames   zsbp   wgt sex    .fitted   .resid    .hat .sigma     .cooksd
   <chr>      <dbl> <dbl> <fct>    <dbl>    <dbl>   <dbl>  <dbl>       <dbl>
 1 1          1.46   58.9 F      0.235    1.23    0.00904  0.858 0.00469    
 2 2          0.214  53   F      0.0739   0.140   0.00501  0.860 0.0000336  
 3 3          0.317  53   F      0.0739   0.243   0.00501  0.860 0.000101   
 4 4          0.222  50   F     -0.00813  0.230   0.00453  0.860 0.0000817  
 5 5         -0.377  36.7 F     -0.372   -0.00546 0.0151   0.860 0.000000158
 6 6          0.268  50   F     -0.00813  0.277   0.00453  0.860 0.000118   
 7 7         -0.335  50   F     -0.00813 -0.327   0.00453  0.860 0.000166   
 8 8          0.716  51.1 F      0.0219   0.694   0.00458  0.860 0.000754   
 9 9         -0.363  49.1 F     -0.0327  -0.330   0.00459  0.860 0.000171   
10 10         1.54   46.5 F     -0.104    1.64    0.00530  0.856 0.00489    
# ℹ 370 more rows
# ℹ 1 more variable: .std.resid <dbl>
…
broom::glance(lm.5)

# A tibble: 1 × 12
  r.squared adj.r.squared sigma statistic   p.value    df logLik   AIC   BIC
      <dbl>         <dbl> <dbl>     <dbl>     <dbl> <dbl>  <dbl> <dbl> <dbl>
1     0.127        0.0914 0.840      3.54 0.0000101    15  -465.  963. 1030.
# ℹ 3 more variables: deviance <dbl>, df.residual <int>, nobs <int>

broom::augment(lm.5)

# A tibble: 380 × 11
   .rownames   zsbp   wgt sex   bmicat    .fitted  .resid    .hat .sigma .cooksd
   <chr>      <dbl> <dbl> <fct> <fct>       <dbl>   <dbl>   <dbl>  <dbl>   <dbl>
 1 1          1.46   58.9 F     Overweig…  0.254   1.21   0.0288   0.838 3.95e-3
 2 2          0.214  53   F     Overweig…  0.0841  0.130  0.0433   0.841 7.07e-5
 3 3          0.317  53   F     Normal    -0.0964  0.414  0.0115   0.841 1.79e-4
 4 4          0.222  50   F     Normal    -0.0816  0.303  0.00737  0.841 6.10e-5
 5 5         -0.377  36.7 F     Underwei… -0.441   0.0637 0.0400   0.841 1.56e-5
 6 6          0.268  50   F     Normal    -0.0816  0.350  0.00737  0.841 8.13e-5
 7 7         -0.335  50   F     Normal    -0.0816 -0.254  0.00737  0.841 4.27e-5
 8 8          0.716  51.1 F     Normal    -0.0870  0.803  0.00835  0.840 4.86e-4
 9 9         -0.363  49.1 F     Normal    -0.0771 -0.286  0.00705  0.841 5.18e-5
10 10         1.54   46.5 F     Normal    -0.0642  1.60   0.00855  0.837 1.98e-3
# ℹ 370 more rows
# ℹ 1 more variable: .std.resid <dbl>
…
broom::glance(lm.6)

# A tibble: 1 × 12
  r.squared adj.r.squared sigma statistic  p.value    df logLik   AIC   BIC
      <dbl>         <dbl> <dbl>     <dbl>    <dbl> <dbl>  <dbl> <dbl> <dbl>
1     0.196         0.163 0.806      5.92 4.93e-11    15  -449.  932.  999.
# ℹ 3 more variables: deviance <dbl>, df.residual <int>, nobs <int>

broom::augment(lm.6)

# A tibble: 380 × 11
   .rownames   zsbp sex      zdbp bmicat  .fitted  .resid    .hat .sigma .cooksd
   <chr>      <dbl> <fct>   <dbl> <fct>     <dbl>   <dbl>   <dbl>  <dbl>   <dbl>
 1 1          1.46  F      1.28   Overwe…  0.324   1.14   0.0453   0.805 6.19e-3
 2 2          0.214 F      1.38   Overwe…  0.343  -0.129  0.0520   0.807 9.28e-5
 3 3          0.317 F      0.645  Normal  -0.0104  0.328  0.00722  0.807 7.56e-5
 4 4          0.222 F      0.645  Normal  -0.0104  0.232  0.00722  0.807 3.80e-5
 5 5         -0.377 F      0.774  Underw… -0.398   0.0209 0.0497   0.807 2.31e-6
 6 6          0.268 F      1.52   Normal   0.463  -0.195  0.0190   0.807 7.22e-5
 7 7         -0.335 F      0.346  Normal  -0.172  -0.164  0.00742  0.807 1.94e-5
 8 8          0.716 F      0.509  Normal  -0.0837  0.800  0.00704  0.806 4.40e-4
 9 9         -0.363 F      1.05   Normal   0.206  -0.569  0.0103   0.807 3.28e-4
10 10         1.54  F     -0.0638 Normal  -0.392   1.93   0.0112   0.801 4.10e-3
# ℹ 370 more rows
# ℹ 1 more variable: .std.resid <dbl>
…
broom::glance(lm.7)

# A tibble: 1 × 12
  r.squared adj.r.squared sigma statistic  p.value    df logLik   AIC   BIC
      <dbl>         <dbl> <dbl>     <dbl>    <dbl> <dbl>  <dbl> <dbl> <dbl>
1     0.111        0.0742 0.848      3.02 0.000131    15  -468.  970. 1037.
# ℹ 3 more variables: deviance <dbl>, df.residual <int>, nobs <int>

broom::augment(lm.7)

# A tibble: 380 × 11
   .rownames   zsbp sex   schcat  bmicat   .fitted  .resid   .hat .sigma .cooksd
   <chr>      <dbl> <fct> <fct>   <fct>      <dbl>   <dbl>  <dbl>  <dbl>   <dbl>
 1 1          1.46  F     Private Overwe…  2.76e-1  1.19   0.0769  0.846 1.10e-2
 2 2          0.214 F     Private Overwe…  2.76e-1 -0.0616 0.0769  0.849 2.98e-5
 3 3          0.317 F     Private Normal  -2.44e-1  0.561  0.0227  0.848 6.52e-4
 4 4          0.222 F     Private Normal  -2.44e-1  0.466  0.0227  0.849 4.49e-4
 5 5         -0.377 F     Private Underw… -4.02e-1  0.0248 0.111   0.849 7.53e-6
 6 6          0.268 F     Private Normal  -2.44e-1  0.513  0.0227  0.848 5.44e-4
 7 7         -0.335 F     Public  Normal  -5.11e-4 -0.335  0.0102  0.849 1.02e-4
 8 8          0.716 F     Public  Normal  -5.11e-4  0.717  0.0102  0.848 4.65e-4
 9 9         -0.363 F     Public  Normal  -5.11e-4 -0.362  0.0102  0.849 1.19e-4
10 10         1.54  F     Public  Normal  -5.11e-4  1.54   0.0102  0.845 2.15e-3
# ℹ 370 more rows
# ℹ 1 more variable: .std.resid <dbl>
…
broom::glance(glm.1)

# A tibble: 1 × 8
  null.deviance df.null logLik   AIC   BIC deviance df.residual  nobs
          <dbl>   <int>  <dbl> <dbl> <dbl>    <dbl>       <int> <int>
1          472.     379  -236.  475.  483.     471.         378   380

broom::augment(glm.1)

# A tibble: 380 × 9
   .rownames dbpcat sex   .fitted .resid    .hat .sigma  .cooksd .std.resid
   <chr>     <fct>  <fct>   <dbl>  <dbl>   <dbl>  <dbl>    <dbl>      <dbl>
 1 1         No     F       0.897 -1.57  0.00452   1.11 0.00560      -1.58 
 2 2         No     F       0.897 -1.57  0.00452   1.11 0.00560      -1.58 
 3 3         Yes    F       0.897  0.827 0.00452   1.12 0.000931      0.829
 4 4         Yes    F       0.897  0.827 0.00452   1.12 0.000931      0.829
 5 5         Yes    F       0.897  0.827 0.00452   1.12 0.000931      0.829
 6 6         No     F       0.897 -1.57  0.00452   1.11 0.00560      -1.58 
 7 7         Yes    F       0.897  0.827 0.00452   1.12 0.000931      0.829
 8 8         Yes    F       0.897  0.827 0.00452   1.12 0.000931      0.829
 9 9         No     F       0.897 -1.57  0.00452   1.11 0.00560      -1.58 
10 10        Yes    F       0.897  0.827 0.00452   1.12 0.000931      0.829
# ℹ 370 more rows
…
broom::glance(glm.1)

# A tibble: 1 × 8
  null.deviance df.null logLik   AIC   BIC deviance df.residual  nobs
          <dbl>   <int>  <dbl> <dbl> <dbl>    <dbl>       <int> <int>
1          472.     379  -236.  476.  484.     472.         378   380

broom::augment(glm.1)

# A tibble: 380 × 9
   .rownames dbpcat   hgt .fitted .resid    .hat .sigma  .cooksd .std.resid
   <chr>     <fct>  <dbl>   <dbl>  <dbl>   <dbl>  <dbl>    <dbl>      <dbl>
 1 1         No       155   0.784 -1.52  0.00269   1.12 0.00296      -1.53 
 2 2         No       149   0.776 -1.52  0.00530   1.12 0.00581      -1.52 
 3 3         Yes      155   0.784  0.867 0.00269   1.12 0.000617      0.868
 4 4         Yes      155   0.784  0.867 0.00269   1.12 0.000617      0.868
 5 5         Yes      165   0.797  0.862 0.00691   1.12 0.00158       0.865
 6 6         No       154   0.783 -1.52  0.00286   1.12 0.00314      -1.52 
 7 7         Yes      169   0.803  0.861 0.0116    1.12 0.00265       0.866
 8 8         Yes      155   0.784  0.867 0.00269   1.12 0.000617      0.868
 9 9         No       164   0.796 -1.53  0.00601   1.12 0.00674      -1.53 
10 10        Yes      160   0.791  0.865 0.00347   1.12 0.000792      0.866
# ℹ 370 more rows
…
broom::glance(glm.2)

# A tibble: 1 × 8
  null.deviance df.null logLik   AIC   BIC deviance df.residual  nobs
          <dbl>   <int>  <dbl> <dbl> <dbl>    <dbl>       <int> <int>
1          472.     379  -236.  475.  483.     471.         378   380

broom::augment(glm.2)

# A tibble: 380 × 9
   .rownames dbpcat sex   .fitted .resid    .hat .sigma  .cooksd .std.resid
   <chr>     <fct>  <fct>   <dbl>  <dbl>   <dbl>  <dbl>    <dbl>      <dbl>
 1 1         No     F       0.897 -1.57  0.00452   1.11 0.00560      -1.58 
 2 2         No     F       0.897 -1.57  0.00452   1.11 0.00560      -1.58 
 3 3         Yes    F       0.897  0.827 0.00452   1.12 0.000931      0.829
 4 4         Yes    F       0.897  0.827 0.00452   1.12 0.000931      0.829
 5 5         Yes    F       0.897  0.827 0.00452   1.12 0.000931      0.829
 6 6         No     F       0.897 -1.57  0.00452   1.11 0.00560      -1.58 
 7 7         Yes    F       0.897  0.827 0.00452   1.12 0.000931      0.829
 8 8         Yes    F       0.897  0.827 0.00452   1.12 0.000931      0.829
 9 9         No     F       0.897 -1.57  0.00452   1.11 0.00560      -1.58 
10 10        Yes    F       0.897  0.827 0.00452   1.12 0.000931      0.829
# ℹ 370 more rows
…
broom::glance(glm.3)

# A tibble: 1 × 8
  null.deviance df.null logLik   AIC   BIC deviance df.residual  nobs
          <dbl>   <int>  <dbl> <dbl> <dbl>    <dbl>       <int> <int>
1          472.     379  -235.  478.  493.     470.         376   380

broom::augment(glm.3)

# A tibble: 380 × 10
   .rownames dbpcat   hgt sex   .fitted .resid    .hat .sigma .cooksd .std.resid
   <chr>     <fct>  <dbl> <fct>   <dbl>  <dbl>   <dbl>  <dbl>   <dbl>      <dbl>
 1 1         No       155 F       0.880 -1.57  0.00464   1.12 2.82e-3     -1.57 
 2 2         No       149 F       0.776 -1.52  0.00916   1.12 5.07e-3     -1.53 
 3 3         Yes      155 F       0.880  0.833 0.00464   1.12 4.86e-4      0.835
 4 4         Yes      155 F       0.880  0.833 0.00464   1.12 4.86e-4      0.835
 5 5         Yes      165 F       1.05   0.774 0.0112    1.12 1.00e-3      0.778
 6 6         No       154 F       0.862 -1.56  0.00491   1.12 2.94e-3     -1.56 
 7 7         Yes      169 F       1.12   0.751 0.0180    1.12 1.52e-3      0.758
 8 8         Yes      155 F       0.880  0.833 0.00464   1.12 4.86e-4      0.835
 9 9         No       164 F       1.03  -1.64  0.00985   1.12 7.07e-3     -1.64 
10 10        Yes      160 F       0.966  0.803 0.00590   1.12 5.68e-4      0.806
# ℹ 370 more rows
…
broom::glance(glm.4)

# A tibble: 1 × 8
  null.deviance df.null logLik   AIC   BIC deviance df.residual  nobs
          <dbl>   <int>  <dbl> <dbl> <dbl>    <dbl>       <int> <int>
1          472.     379  -225.  483.  546.     451.         364   380

broom::augment(glm.4)

# A tibble: 380 × 11
   .rownames dbpcat schcat  sex   bmicat    .fitted .resid   .hat .sigma .cooksd
   <chr>     <fct>  <fct>   <fct> <fct>       <dbl>  <dbl>  <dbl>  <dbl>   <dbl>
 1 1         No     Private F     Overweig…   0.811 -1.54  0.0769   1.11 1.27e-2
 2 2         No     Private F     Overweig…   0.811 -1.54  0.0769   1.11 1.27e-2
 3 3         Yes    Private F     Normal      0.560  0.951 0.0227   1.11 8.50e-4
 4 4         Yes    Private F     Normal      0.560  0.951 0.0227   1.11 8.50e-4
 5 5         Yes    Private F     Underwei…   2.08   0.485 0.111    1.11 1.10e-3
 6 6         No     Private F     Normal      0.560 -1.42  0.0227   1.11 2.60e-3
 7 7         Yes    Public  F     Normal      1.13   0.750 0.0102   1.11 2.11e-4
 8 8         Yes    Public  F     Normal      1.13   0.750 0.0102   1.11 2.11e-4
 9 9         No     Public  F     Normal      1.13  -1.68  0.0102   1.11 2.01e-3
10 10        Yes    Public  F     Normal      1.13   0.750 0.0102   1.11 2.11e-4
# ℹ 370 more rows
# ℹ 1 more variable: .std.resid <dbl>
…
