18 Linear Regression – Data Analysis With R
…
Code

lm1 %>% broom::augment()

# A tibble: 702 × 13
   cca_0   sbp   dbp   ldl ageyrs totchol whratio .fitted  .resid    .hat .sigma
   <dbl> <dbl> <dbl> <dbl>  <dbl>   <dbl>   <dbl>   <dbl>   <dbl>   <dbl>  <dbl>
 1 0.925   130    80   4.5     58     6.7   0.9     0.936 -0.0113 0.00677  0.150
 2 0.975   120    80   2.3     48     4.4   0.924   0.875  0.0996 0.00359  0.150
 3 0.85    110    80   1.3     40     2.7   0.877   0.822  0.0284 0.00730  0.150
 4 0.875   120    80   3.5     38     5.1   0.869   0.831  0.0438 0.00301  0.150
 5 1.6     150   100   3.1     49     4.9   1.01    0.913  0.687  0.00863  0.148
 6 1.02    130    70   4.2     60     6.3   0.970   0.947  0.0777 0.00986  0.150
 7 1       106    71   2.1     42     3.8   0.949   0.838  0.162  0.00503  0.150
 8 1.32    130   100   3.2     55     4.9   0.843   0.913  0.412  0.0130   0.149
 9 1.1     110    80   3.3     36     5.1   0.814   0.811  0.289  0.00503  0.150
10 1       110    70   0.7     55     3.3   0.912   0.890  0.110  0.0172   0.150
# ℹ 692 more rows
# ℹ 2 more variables: .cooksd <dbl>, .std.resid <dbl>
…
