32 Logistic Regression – Data Analysis With R
…
Adjusted for:
* gmat = 580.00
* rank =   2.00

Not all rows are shown in the output. Use `print(..., n = Inf)` to show
  all rows.

Code

ggeffects::ggpredict(model = mod.1, terms = c("gpa[all]")) %>% 
    tibble()

# A tibble: 132 × 6
       x predicted std.error conf.low conf.high group
   <dbl>     <dbl>     <dbl>    <dbl>     <dbl> <fct>
 1  2.26     0.185     0.395   0.0947     0.330 1    
 2  2.42     0.204     0.346   0.115      0.336 1    
 3  2.48     0.212     0.328   0.124      0.338 1    
 4  2.52     0.217     0.315   0.130      0.340 1    
 5  2.55     0.221     0.306   0.135      0.341 1    
 6  2.56     0.223     0.303   0.136      0.342 1    
 7  2.62     0.231     0.286   0.146      0.344 1    
 8  2.63     0.232     0.283   0.148      0.345 1    
 9  2.65     0.235     0.277   0.152      0.346 1    
10  2.67     0.238     0.271   0.155      0.347 1    
# ℹ 122 more rows
…
Rank is considered as a numeric variable but it is a categorical one so we convert it to one below

Code

adm <- 
    adm %>% 
    mutate(catrank = factor(rank))
adm

# A tibble: 400 × 5
   admit  gmat   gpa  rank catrank
   <int> <int> <dbl> <int> <fct>  
 1     0   380  3.61     3 3      
 2     1   660  3.67     3 3      
 3     1   800  4        1 1      
 4     1   640  3.19     4 4      
 5     0   520  2.93     4 4      
 6     1   760  3        2 2      
 7     1   560  2.98     1 1      
 8     0   400  3.08     2 2      
 9     1   540  3.39     3 3      
10     0   700  3.92     2 2      
# ℹ 390 more rows
…
