39 Survival Analysis – Data Analysis With R
…
Call: survfit(formula = survival::Surv(event = died, time = adm_dura_hrs) ~ 
    1, data = .)

        n events median 0.95LCL 0.95UCL
[1,] 7502   1166     NA     922      NA

Code

km1 %>% broom::tidy()

# A tibble: 4,632 × 8
     time n.risk n.event n.censor estimate std.error conf.high conf.low
    <dbl>  <dbl>   <dbl>    <dbl>    <dbl>     <dbl>     <dbl>    <dbl>
 1 0        7502       8        8    0.999  0.000377     1.00     0.998
 2 0.0167   7486       1        0    0.999  0.000400     1.00     0.998
 3 0.0833   7485       1        0    0.999  0.000422     0.999    0.998
 4 0.167    7484       2        1    0.998  0.000462     0.999    0.997
 5 0.2      7481       0        1    0.998  0.000462     0.999    0.997
 6 0.333    7480       1        0    0.998  0.000481     0.999    0.997
 7 0.383    7479       1        0    0.998  0.000499     0.999    0.997
 8 0.5      7478       3        1    0.998  0.000551     0.999    0.997
 9 0.6      7474       1        0    0.998  0.000567     0.999    0.996
10 0.667    7473       2        0    0.997  0.000597     0.999    0.996
# ℹ 4,622 more rows
…
km_by_sex

Call: survfit(formula = survival::Surv(event = died, time = adm_dura_hrs) ~ 
    sex, data = .)

              n events median 0.95LCL 0.95UCL
sex=Female 3292    494     NA     751      NA
sex=Male   4210    672     NA     871      NA

Code

km_by_sex %>% broom::tidy() %>% arrange(time)

# A tibble: 5,577 × 9
     time n.risk n.event n.censor estimate std.error conf.high conf.low strata  
    <dbl>  <dbl>   <dbl>    <dbl>    <dbl>     <dbl>     <dbl>    <dbl> <chr>   
 1 0        3292       3        2    0.999  0.000526     1        0.998 sex=Fem…
 2 0        4210       5        6    0.999  0.000531     1.00     0.998 sex=Male
 3 0.0167   3287       1        0    0.999  0.000608     1.00     0.998 sex=Fem…
 4 0.0833   4199       1        0    0.999  0.000582     1.00     0.997 sex=Male
 5 0.167    3286       0        1    0.999  0.000608     1.00     0.998 sex=Fem…
 6 0.167    4198       2        0    0.998  0.000673     0.999    0.997 sex=Male
 7 0.2      3285       0        1    0.999  0.000608     1.00     0.998 sex=Fem…
 8 0.333    3284       1        0    0.998  0.000680     1.00     0.997 sex=Fem…
 9 0.383    3283       1        0    0.998  0.000745     1.00     0.997 sex=Fem…
10 0.5      3282       1        0    0.998  0.000805     0.999    0.996 sex=Fem…
# ℹ 5,567 more rows
…
